qid,campaign,kwd
Q632,wikisevran,
Q38335548,wikisevran,
Q927440,wikisevran,
Q26964668,wikisevran,
Q50805154,wikisevran,
Q877804,wikisevran,
Q2402419,wikisevran,
Q1133735,wikisevran,
Q56307585,wikisevran,
Q55100046,wikisevran,
Q200790,wikisevran,
Q2848708,wikisevran,
Q50805151,wikisevran,
Q54313762,wikisevran,
Q2042,wikisevran,
Q20241019,wikisevran,
Q3098928,wikisevran,
Q24932607,wikisevran,
Q120417,wikisevran,
Q55598256,wikisevran,
Q2413199,wikisevran,
Q33301568,wikisevran,
Q3400190,wikisevran,
Q486269,wikisevran,
Q481398,wikisevran,
Q2940609,wikisevran,
Q3434496,wikisevran,
Q60605,wikisevran,
Q48308125,wikisevran,
Q19767744,wikisevran,
Q2825463,wikisevran,
Q383487,wikisevran,
Q52159008,wikisevran,
Q3036950,wikisevran,
Q30117152,wikisevran,
Q708078,wikisevran,
Q23810,wikisevran,
Q622365,wikisevran,
Q1571613,wikisevran,
Q12989491,wikisevran,
Q3173390,wikisevran,
Q1032646,wikisevran,
Q3265711,wikisevran,
Q3097731,wikisevran,
Q15635447,wikisevran,
Q370332,wikisevran,
Q471460,wikisevran,
Q56305347,wikisevran,
Q23017754,wikisevran,
Q387630,wikisevran,
Q54913519,wikisevran,
Q2974770,wikisevran,
Q836128,wikisevran,
Q2303612,wikisevran,
